riscV/testbenches/waves/full/waveforms3.vcd
$date
	Wed Jun 14 14:50:33 2023
$end
$version
	Icarus Verilog
$end
$timescale
	1s
$end
$scope module full_tb $end
$scope module UUT $end
$var wire 1 ! clk $end
$var wire 1 " rst_n $end
$var wire 32 # i_mem_data [31:0] $end
$var wire 6 $ i_mem_addr [5:0] $end
$var wire 1 % d_mem_we $end
$var wire 64 & d_mem_data [63:0] $end
$var wire 6 ' d_mem_addr [5:0] $end
$scope module DM $end
$var wire 1 ! clk $end
$var wire 1 % d_mem_we $end
$var wire 64 ( d_mem_data [63:0] $end
$var wire 6 ) d_mem_addr [5:0] $end
$upscope $end
$scope module IM $end
$var wire 32 * i_mem_data [31:0] $end
$var wire 6 + i_mem_addr [5:0] $end
$upscope $end
$scope module RISCV $end
$var wire 1 ! clk $end
$var wire 64 , d_mem_data [63:0] $end
$var wire 32 - i_mem_data [31:0] $end
$var wire 1 " rst_n $end
$var wire 1 . rf_we $end
$var wire 1 / rf_src $end
$var wire 1 0 pc_src $end
$var wire 7 1 opcode [6:0] $end
$var wire 6 2 i_mem_addr [5:0] $end
$var wire 1 % d_mem_we $end
$var wire 6 3 d_mem_addr [5:0] $end
$var wire 1 4 alu_src $end
$var wire 4 5 alu_flags [3:0] $end
$var wire 4 6 alu_cmd [3:0] $end
$scope module FD $end
$var wire 1 ! clk $end
$var wire 64 7 d_mem_data [63:0] $end
$var wire 32 8 i_mem_data [31:0] $end
$var wire 1 " rst_n $end
$var wire 5 9 rw [4:0] $end
$var wire 5 : rs2 [4:0] $end
$var wire 5 ; rs1 [4:0] $end
$var wire 1 . rf_we $end
$var wire 1 / rf_src $end
$var wire 64 < r_multi3 [63:0] $end
$var wire 64 = r_multi2 [63:0] $end
$var wire 64 > r_multi1 [63:0] $end
$var wire 1 0 pc_src $end
$var wire 64 ? pc_out [63:0] $end
$var wire 7 @ opcode [6:0] $end
$var wire 6 A i_mem_addr [5:0] $end
$var wire 64 B extended_instruction [63:0] $end
$var wire 64 C doB [63:0] $end
$var wire 64 D doA [63:0] $end
$var wire 1 % d_mem_we $end
$var wire 6 E d_mem_addr [5:0] $end
$var wire 1 4 alu_src $end
$var wire 4 F alu_flags [3:0] $end
$var wire 4 G alu_cmd [3:0] $end
$var wire 64 H add_sum_out [63:0] $end
$var wire 64 I add4_out [63:0] $end
$var wire 64 J ULA_out [63:0] $end
$scope module RB $end
$var wire 1 ! clock $end
$var wire 64 K data_out_A [63:0] $end
$var wire 64 L data_out_B [63:0] $end
$var wire 5 M regA [4:0] $end
$var wire 5 N regB [4:0] $end
$var wire 5 O regW [4:0] $end
$var wire 1 " reset_rb $end
$var wire 1 . w_enable $end
$var wire 64 P data_in_rb [63:0] $end
$scope begin genblk1[1] $end
$scope module xN $end
$var wire 1 ! clock $end
$var wire 64 Q data_out [63:0] $end
$var wire 1 R r_enable $end
$var wire 1 " reset $end
$var wire 64 S data_in [63:0] $end
$var reg 64 T guarda [63:0] $end
$upscope $end
$upscope $end
$scope begin genblk1[2] $end
$scope module xN $end
$var wire 1 ! clock $end
$var wire 64 U data_out [63:0] $end
$var wire 1 V r_enable $end
$var wire 1 " reset $end
$var wire 64 W data_in [63:0] $end
$var reg 64 X guarda [63:0] $end
$upscope $end
$upscope $end
$scope begin genblk1[3] $end
$scope module xN $end
$var wire 1 ! clock $end
$var wire 64 Y data_out [63:0] $end
$var wire 1 Z r_enable $end
$var wire 1 " reset $end
$var wire 64 [ data_in [63:0] $end
$var reg 64 \ guarda [63:0] $end
$upscope $end
$upscope $end
$scope begin genblk1[4] $end
$scope module xN $end
$var wire 1 ! clock $end
$var wire 64 ] data_out [63:0] $end
$var wire 1 ^ r_enable $end
$var wire 1 " reset $end
$var wire 64 _ data_in [63:0] $end
$var reg 64 ` guarda [63:0] $end
$upscope $end
$upscope $end
$scope begin genblk1[5] $end
$scope module xN $end
$var wire 1 ! clock $end
$var wire 64 a data_out [63:0] $end
$var wire 1 b r_enable $end
$var wire 1 " reset $end
$var wire 64 c data_in [63:0] $end
$var reg 64 d guarda [63:0] $end
$upscope $end
$upscope $end
$scope begin genblk1[6] $end
$scope module xN $end
$var wire 1 ! clock $end
$var wire 64 e data_out [63:0] $end
$var wire 1 f r_enable $end
$var wire 1 " reset $end
$var wire 64 g data_in [63:0] $end
$var reg 64 h guarda [63:0] $end
$upscope $end
$upscope $end
$scope begin genblk1[7] $end
$scope module xN $end
$var wire 1 ! clock $end
$var wire 64 i data_out [63:0] $end
$var wire 1 j r_enable $end
$var wire 1 " reset $end
$var wire 64 k data_in [63:0] $end
$var reg 64 l guarda [63:0] $end
$upscope $end
$upscope $end
$scope begin genblk1[8] $end
$scope module xN $end
$var wire 1 ! clock $end
$var wire 64 m data_out [63:0] $end
$var wire 1 n r_enable $end
$var wire 1 " reset $end
$var wire 64 o data_in [63:0] $end
$var reg 64 p guarda [63:0] $end
$upscope $end
$upscope $end
$scope begin genblk1[9] $end
$scope module xN $end
$var wire 1 ! clock $end
$var wire 64 q data_out [63:0] $end
$var wire 1 r r_enable $end
$var wire 1 " reset $end
$var wire 64 s data_in [63:0] $end
$var reg 64 t guarda [63:0] $end
$upscope $end
$upscope $end
$scope begin genblk1[10] $end
$scope module xN $end
$var wire 1 ! clock $end
$var wire 64 u data_out [63:0] $end
$var wire 1 v r_enable $end
$var wire 1 " reset $end
$var wire 64 w data_in [63:0] $end
$var reg 64 x guarda [63:0] $end
$upscope $end
$upscope $end
$scope begin genblk1[11] $end
$scope module xN $end
$var wire 1 ! clock $end
$var wire 64 y data_out [63:0] $end
$var wire 1 z r_enable $end
$var wire 1 " reset $end
$var wire 64 { data_in [63:0] $end
$var reg 64 | guarda [63:0] $end
$upscope $end
$upscope $end
$scope begin genblk1[12] $end
$scope module xN $end
$var wire 1 ! clock $end
$var wire 64 } data_out [63:0] $end
$var wire 1 ~ r_enable $end
$var wire 1 " reset $end
$var wire 64 !" data_in [63:0] $end
$var reg 64 "" guarda [63:0] $end
$upscope $end
$upscope $end
$scope begin genblk1[13] $end
$scope module xN $end
$var wire 1 ! clock $end
$var wire 64 #" data_out [63:0] $end
$var wire 1 $" r_enable $end
$var wire 1 " reset $end
$var wire 64 %" data_in [63:0] $end
$var reg 64 &" guarda [63:0] $end
$upscope $end
$upscope $end
$scope begin genblk1[14] $end
$scope module xN $end
$var wire 1 ! clock $end
$var wire 64 '" data_out [63:0] $end
$var wire 1 (" r_enable $end
$var wire 1 " reset $end
$var wire 64 )" data_in [63:0] $end
$var reg 64 *" guarda [63:0] $end
$upscope $end
$upscope $end
$scope begin genblk1[15] $end
$scope module xN $end
$var wire 1 ! clock $end
$var wire 64 +" data_out [63:0] $end
$var wire 1 ," r_enable $end
$var wire 1 " reset $end
$var wire 64 -" data_in [63:0] $end
$var reg 64 ." guarda [63:0] $end
$upscope $end
$upscope $end
$scope begin genblk1[16] $end
$scope module xN $end
$var wire 1 ! clock $end
$var wire 64 /" data_out [63:0] $end
$var wire 1 0" r_enable $end
$var wire 1 " reset $end
$var wire 64 1" data_in [63:0] $end
$var reg 64 2" guarda [63:0] $end
$upscope $end
$upscope $end
$scope begin genblk1[17] $end
$scope module xN $end
$var wire 1 ! clock $end
$var wire 64 3" data_out [63:0] $end
$var wire 1 4" r_enable $end
$var wire 1 " reset $end
$var wire 64 5" data_in [63:0] $end
$var reg 64 6" guarda [63:0] $end
$upscope $end
$upscope $end
$scope begin genblk1[18] $end
$scope module xN $end
$var wire 1 ! clock $end
$var wire 64 7" data_out [63:0] $end
$var wire 1 8" r_enable $end
$var wire 1 " reset $end
$var wire 64 9" data_in [63:0] $end
$var reg 64 :" guarda [63:0] $end
$upscope $end
$upscope $end
$scope begin genblk1[19] $end
$scope module xN $end
$var wire 1 ! clock $end
$var wire 64 ;" data_out [63:0] $end
$var wire 1 <" r_enable $end
$var wire 1 " reset $end
$var wire 64 =" data_in [63:0] $end
$var reg 64 >" guarda [63:0] $end
$upscope $end
$upscope $end
$scope begin genblk1[20] $end
$scope module xN $end
$var wire 1 ! clock $end
$var wire 64 ?" data_out [63:0] $end
$var wire 1 @" r_enable $end
$var wire 1 " reset $end
$var wire 64 A" data_in [63:0] $end
$var reg 64 B" guarda [63:0] $end
$upscope $end
$upscope $end
$scope begin genblk1[21] $end
$scope module xN $end
$var wire 1 ! clock $end
$var wire 64 C" data_out [63:0] $end
$var wire 1 D" r_enable $end
$var wire 1 " reset $end
$var wire 64 E" data_in [63:0] $end
$var reg 64 F" guarda [63:0] $end
$upscope $end
$upscope $end
$scope begin genblk1[22] $end
$scope module xN $end
$var wire 1 ! clock $end
$var wire 64 G" data_out [63:0] $end
$var wire 1 H" r_enable $end
$var wire 1 " reset $end
$var wire 64 I" data_in [63:0] $end
$var reg 64 J" guarda [63:0] $end
$upscope $end
$upscope $end
$scope begin genblk1[23] $end
$scope module xN $end
$var wire 1 ! clock $end
$var wire 64 K" data_out [63:0] $end
$var wire 1 L" r_enable $end
$var wire 1 " reset $end
$var wire 64 M" data_in [63:0] $end
$var reg 64 N" guarda [63:0] $end
$upscope $end
$upscope $end
$scope begin genblk1[24] $end
$scope module xN $end
$var wire 1 ! clock $end
$var wire 64 O" data_out [63:0] $end
$var wire 1 P" r_enable $end
$var wire 1 " reset $end
$var wire 64 Q" data_in [63:0] $end
$var reg 64 R" guarda [63:0] $end
$upscope $end
$upscope $end
$scope begin genblk1[25] $end
$scope module xN $end
$var wire 1 ! clock $end
$var wire 64 S" data_out [63:0] $end
$var wire 1 T" r_enable $end
$var wire 1 " reset $end
$var wire 64 U" data_in [63:0] $end
$var reg 64 V" guarda [63:0] $end
$upscope $end
$upscope $end
$scope begin genblk1[26] $end
$scope module xN $end
$var wire 1 ! clock $end
$var wire 64 W" data_out [63:0] $end
$var wire 1 X" r_enable $end
$var wire 1 " reset $end
$var wire 64 Y" data_in [63:0] $end
$var reg 64 Z" guarda [63:0] $end
$upscope $end
$upscope $end
$scope begin genblk1[27] $end
$scope module xN $end
$var wire 1 ! clock $end
$var wire 64 [" data_out [63:0] $end
$var wire 1 \" r_enable $end
$var wire 1 " reset $end
$var wire 64 ]" data_in [63:0] $end
$var reg 64 ^" guarda [63:0] $end
$upscope $end
$upscope $end
$scope begin genblk1[28] $end
$scope module xN $end
$var wire 1 ! clock $end
$var wire 64 _" data_out [63:0] $end
$var wire 1 `" r_enable $end
$var wire 1 " reset $end
$var wire 64 a" data_in [63:0] $end
$var reg 64 b" guarda [63:0] $end
$upscope $end
$upscope $end
$scope begin genblk1[29] $end
$scope module xN $end
$var wire 1 ! clock $end
$var wire 64 c" data_out [63:0] $end
$var wire 1 d" r_enable $end
$var wire 1 " reset $end
$var wire 64 e" data_in [63:0] $end
$var reg 64 f" guarda [63:0] $end
$upscope $end
$upscope $end
$scope begin genblk1[30] $end
$scope module xN $end
$var wire 1 ! clock $end
$var wire 64 g" data_out [63:0] $end
$var wire 1 h" r_enable $end
$var wire 1 " reset $end
$var wire 64 i" data_in [63:0] $end
$var reg 64 j" guarda [63:0] $end
$upscope $end
$upscope $end
$scope begin genblk1[31] $end
$scope module xN $end
$var wire 1 ! clock $end
$var wire 64 k" data_out [63:0] $end
$var wire 1 l" r_enable $end
$var wire 1 " reset $end
$var wire 64 m" data_in [63:0] $end
$var reg 64 n" guarda [63:0] $end
$upscope $end
$upscope $end
$upscope $end
$scope module add1 $end
$var wire 64 o" data_out [63:0] $end
$var wire 64 p" data_in [63:0] $end
$upscope $end
$scope module addsum $end
$var wire 64 q" data_out [63:0] $end
$var wire 64 r" data_b [63:0] $end
$var wire 64 s" data_a [63:0] $end
$upscope $end
$scope module alu $end
$var wire 64 t" data_a [63:0] $end
$var wire 4 u" ula_control [3:0] $end
$var wire 64 v" data_b [63:0] $end
$var wire 4 w" alu_flags_ula [3:0] $end
$var reg 2 x" compare_result_signed [1:0] $end
$var reg 2 y" compare_result_unsigned [1:0] $end
$var reg 64 z" result [63:0] $end
$upscope $end
$scope module deco $end
$var wire 32 {" instruction_d [31:0] $end
$var reg 64 |" immediate [63:0] $end
$upscope $end
$scope module mux1 $end
$var wire 64 }" a [63:0] $end
$var wire 64 ~" b [63:0] $end
$var wire 1 4 s $end
$var reg 64 !# result [63:0] $end
$upscope $end
$scope module mux2 $end
$var wire 64 "# a [63:0] $end
$var wire 64 ## b [63:0] $end
$var wire 1 / s $end
$var reg 64 $# result [63:0] $end
$upscope $end
$scope module mux3 $end
$var wire 64 %# a [63:0] $end
$var wire 64 &# b [63:0] $end
$var wire 1 0 s $end
$var reg 64 '# result [63:0] $end
$upscope $end
$scope module pc1 $end
$var wire 1 ! clk_pc $end
$var wire 64 (# data_in_pc [63:0] $end
$var wire 1 )# en $end
$var wire 1 " reset $end
$var wire 64 *# data_out_pc [63:0] $end
$var reg 2 +# counter [1:0] $end
$var reg 64 ,# regpc [63:0] $end
$upscope $end
$upscope $end
$scope module UC $end
$var wire 4 -# alu_flags [3:0] $end
$var wire 1 ! clk $end
$var wire 7 .# opcode [6:0] $end
$var wire 1 " rst_n $end
$var reg 4 /# alu_cmd [3:0] $end
$var reg 1 4 alu_src $end
$var reg 4 0# current_state [3:0] $end
$var reg 1 % d_mem_we $end
$var reg 4 1# next_state [3:0] $end
$var reg 1 0 pc_src $end
$var reg 1 / rf_src $end
$var reg 1 . rf_we $end
$upscope $end
$upscope $end
$upscope $end
$upscope $end
$enddefinitions $end
#0
$dumpvars
b10 1#
b1 0#
b0 /#
b11 .#
bz001 -#
b0 ,#
b0 +#
b0 *#
1)#
b100 (#
b100 '#
b1010 &#
b100 %#
b0 $#
bx ##
b0 "#
b0 !#
b1010 ~"
b0 }"
b1010 |"
b101000000011010010000011 {"
b0 z"
b1 y"
b1 x"
bz001 w"
b0 v"
b0 u"
b0 t"
b0 s"
b1010 r"
b1010 q"
b0 p"
b100 o"
b0 n"
b0 m"
0l"
b0 k"
b0 j"
b0 i"
0h"
b0 g"
b0 f"
b0 e"
0d"
b0 c"
b0 b"
b0 a"
0`"
b0 _"
b0 ^"
b0 ]"
0\"
b0 ["
b0 Z"
b0 Y"
0X"
b0 W"
b0 V"
b0 U"
0T"
b0 S"
b0 R"
b0 Q"
0P"
b0 O"
b0 N"
b0 M"
0L"
b0 K"
b0 J"
b0 I"
0H"
b0 G"
b0 F"
b0 E"
0D"
b0 C"
b0 B"
b0 A"
0@"
b0 ?"
b0 >"
b0 ="
0<"
b0 ;"
b0 :"
b0 9"
08"
b0 7"
b0 6"
b0 5"
04"
b0 3"
b0 2"
b0 1"
00"
b0 /"
b0 ."
b0 -"
0,"
b0 +"
b0 *"
b0 )"
0("
b0 '"
b0 &"
b0 %"
0$"
b0 #"
b0 ""
b0 !"
0~
b0 }
b0 |
b0 {
0z
b0 y
b0 x
b0 w
0v
b0 u
b0 t
b0 s
1r
b0 q
b0 p
b0 o
0n
b0 m
b0 l
b0 k
0j
b0 i
b0 h
b0 g
0f
b0 e
b0 d
b0 c
0b
b0 a
b0 `
b0 _
0^
b0 ]
b0 \
b0 [
0Z
b0 Y
b0 X
b0 W
0V
b0 U
b0 T
b0 S
0R
b0 Q
b0 P
b1001 O
b1010 N
b0 M
b0 L
b0 K
b0 J
b100 I
b1010 H
b0 G
bz001 F
b0 E
b0 D
b0 C
b1010 B
b1 A
b11 @
b0 ?
b0 >
b0 =
b100 <
b0 ;
b1010 :
b1001 9
b101000000011010010000011 8
bx 7
b0 6
bz001 5
04
b0 3
b1 2
b11 1
00
0/
0.
b101000000011010010000011 -
bx ,
b1 +
b101000000011010010000011 *
b0 )
bx (
b0 '
bx &
0%
b1 $
b101000000011010010000011 #
0"
0!
$end
#5
b1 +#
1!
#10
0!
1"
#15
b101 1#
b10 0#
b10 +#
1!
#20
0!
#25
b110010 &
b110010 (
b110010 ,
b110010 7
b110010 ##
bz000 5
bz000 F
bz000 w"
bz000 -#
b0 x"
b1010 '
b1010 )
b1010 3
b1010 E
b0 y"
b1010 J
b1010 z"
b1010 "#
b110010 =
b110010 P
b110010 S
b110010 W
b110010 [
b110010 _
b110010 c
b110010 g
b110010 k
b110010 o
b110010 s
b110010 w
b110010 {
b110010 !"
b110010 %"
b110010 )"
b110010 -"
b110010 1"
b110010 5"
b110010 9"
b110010 ="
b110010 A"
b110010 E"
b110010 I"
b110010 M"
b110010 Q"
b110010 U"
b110010 Y"
b110010 ]"
b110010 a"
b110010 e"
b110010 i"
b110010 m"
b110010 $#
b1010 >
b1010 v"
b1010 !#
b1 6
b1 G
b1 u"
b1 /#
1.
1/
14
b1000 1#
b11 +#
b101 0#
1!
#30
0!
#35
bx &
bx (
bx ,
bx 7
bx ##
bz001 5
bz001 F
bz001 w"
bz001 -#
b1 x"
b0 '
b0 )
b0 3
b0 E
b1011 :
b1011 N
0r
1v
b1010 9
b1010 O
b1011 B
b1011 r"
b1011 |"
b1011 ~"
b1 y"
b0 J
b0 z"
b0 "#
b101100000011010100000011 #
b101100000011010100000011 *
b101100000011010100000011 -
b101100000011010100000011 8
b101100000011010100000011 {"
b10 $
b10 +
b10 2
b10 A
b0 >
b0 v"
b0 !#
b0 =
b0 P
b0 S
b0 W
b0 [
b0 _
b0 c
b0 g
b0 k
b0 o
b0 s
b0 w
b0 {
b0 !"
b0 %"
b0 )"
b0 -"
b0 1"
b0 5"
b0 9"
b0 ="
b0 A"
b0 E"
b0 I"
b0 M"
b0 Q"
b0 U"
b0 Y"
b0 ]"
b0 a"
b0 e"
b0 i"
b0 m"
b0 $#
b1000 <
b1000 '#
b1000 (#
b0 6
b0 G
b0 u"
b0 /#
04
0/
0.
b1 1#
b1000 0#
b0 +#
b1111 H
b1111 q"
b1111 &#
b1000 I
b1000 o"
b1000 %#
b100 ?
b100 p"
b100 s"
b100 *#
b100 ,#
b110010 q
b110010 t
1!
#40
0!
#45
b10 1#
b1 +#
b1 0#
1!
#50
0!
#55
b101 1#
b10 0#
b10 +#
1!
#60
0!
#65
b1100 &
b1100 (
b1100 ,
b1100 7
b1100 ##
bz000 5
bz000 F
bz000 w"
bz000 -#
b0 x"
b1011 '
b1011 )
b1011 3
b1011 E
b0 y"
b1011 J
b1011 z"
b1011 "#
b1100 =
b1100 P
b1100 S
b1100 W
b1100 [
b1100 _
b1100 c
b1100 g
b1100 k
b1100 o
b1100 s
b1100 w
b1100 {
b1100 !"
b1100 %"
b1100 )"
b1100 -"
b1100 1"
b1100 5"
b1100 9"
b1100 ="
b1100 A"
b1100 E"
b1100 I"
b1100 M"
b1100 Q"
b1100 U"
b1100 Y"
b1100 ]"
b1100 a"
b1100 e"
b1100 i"
b1100 m"
b1100 $#
b1011 >
b1011 v"
b1011 !#
b1 6
b1 G
b1 u"
b1 /#
1.
1/
14
b1000 1#
b11 +#
b101 0#
1!
#70
0!
#75
bx &
bx (
bx ,
bx 7
bx ##
bz001 5
bz001 F
bz001 w"
bz001 -#
b1 x"
b0 '
b0 )
b0 3
b0 E
b1111 :
b1111 N
0v
1,"
b1111 9
b1111 O
b1111 B
b1111 r"
b1111 |"
b1111 ~"
b1 y"
b0 J
b0 z"
b0 "#
b111100000011011110000011 #
b111100000011011110000011 *
b111100000011011110000011 -
b111100000011011110000011 8
b111100000011011110000011 {"
b11 $
b11 +
b11 2
b11 A
b0 >
b0 v"
b0 !#
b0 =
b0 P
b0 S
b0 W
b0 [
b0 _
b0 c
b0 g
b0 k
b0 o
b0 s
b0 w
b0 {
b0 !"
b0 %"
b0 )"
b0 -"
b0 1"
b0 5"
b0 9"
b0 ="
b0 A"
b0 E"
b0 I"
b0 M"
b0 Q"
b0 U"
b0 Y"
b0 ]"
b0 a"
b0 e"
b0 i"
b0 m"
b0 $#
b1100 <
b1100 '#
b1100 (#
b0 6
b0 G
b0 u"
b0 /#
04
0/
0.
b1 1#
b1000 0#
b0 +#
b10111 H
b10111 q"
b10111 &#
b1100 I
b1100 o"
b1100 %#
b1000 ?
b1000 p"
b1000 s"
b1000 *#
b1000 ,#
b1100 u
b1100 x
1!
#80
0!
#85
b10 1#
b1 +#
b1 0#
1!
#90
0!
#95
b101 1#
b10 0#
b10 +#
1!
#100
0!
#105
b1000000000000000000000000000000000000000000000000000000000000000 &
b1000000000000000000000000000000000000000000000000000000000000000 (
b1000000000000000000000000000000000000000000000000000000000000000 ,
b1000000000000000000000000000000000000000000000000000000000000000 7
b1000000000000000000000000000000000000000000000000000000000000000 ##
bz000 5
bz000 F
bz000 w"
bz000 -#
b0 x"
b1111 '
b1111 )
b1111 3
b1111 E
b0 y"
b1111 J
b1111 z"
b1111 "#
b1000000000000000000000000000000000000000000000000000000000000000 =
b1000000000000000000000000000000000000000000000000000000000000000 P
b1000000000000000000000000000000000000000000000000000000000000000 S
b1000000000000000000000000000000000000000000000000000000000000000 W
b1000000000000000000000000000000000000000000000000000000000000000 [
b1000000000000000000000000000000000000000000000000000000000000000 _
b1000000000000000000000000000000000000000000000000000000000000000 c
b1000000000000000000000000000000000000000000000000000000000000000 g
b1000000000000000000000000000000000000000000000000000000000000000 k
b1000000000000000000000000000000000000000000000000000000000000000 o
b1000000000000000000000000000000000000000000000000000000000000000 s
b1000000000000000000000000000000000000000000000000000000000000000 w
b1000000000000000000000000000000000000000000000000000000000000000 {
b1000000000000000000000000000000000000000000000000000000000000000 !"
b1000000000000000000000000000000000000000000000000000000000000000 %"
b1000000000000000000000000000000000000000000000000000000000000000 )"
b1000000000000000000000000000000000000000000000000000000000000000 -"
b1000000000000000000000000000000000000000000000000000000000000000 1"
b1000000000000000000000000000000000000000000000000000000000000000 5"
b1000000000000000000000000000000000000000000000000000000000000000 9"
b1000000000000000000000000000000000000000000000000000000000000000 ="
b1000000000000000000000000000000000000000000000000000000000000000 A"
b1000000000000000000000000000000000000000000000000000000000000000 E"
b1000000000000000000000000000000000000000000000000000000000000000 I"
b1000000000000000000000000000000000000000000000000000000000000000 M"
b1000000000000000000000000000000000000000000000000000000000000000 Q"
b1000000000000000000000000000000000000000000000000000000000000000 U"
b1000000000000000000000000000000000000000000000000000000000000000 Y"
b1000000000000000000000000000000000000000000000000000000000000000 ]"
b1000000000000000000000000000000000000000000000000000000000000000 a"
b1000000000000000000000000000000000000000000000000000000000000000 e"
b1000000000000000000000000000000000000000000000000000000000000000 i"
b1000000000000000000000000000000000000000000000000000000000000000 m"
b1000000000000000000000000000000000000000000000000000000000000000 $#
b1111 >
b1111 v"
b1111 !#
b1 6
b1 G
b1 u"
b1 /#
1.
1/
14
b1000 1#
b11 +#
b101 0#
1!
#110
0!
#115
bx &
bx (
bx ,
bx 7
bx ##
b0 x"
bz000 5
bz000 F
bz000 w"
bz000 -#
b111110 '
b111110 )
b111110 3
b111110 E
b1010 :
b1010 N
b110010 D
b110010 K
b110010 t"
b1001 ;
b1001 M
1z
0,"
b1011 9
b1011 O
b110011 1
b110011 @
b110011 .#
b10000001010 B
b10000001010 r"
b10000001010 |"
b10000001010 ~"
b0 y"
b111110 J
b111110 z"
b111110 "#
b1000000101001001000010110110011 #
b1000000101001001000010110110011 *
b1000000101001001000010110110011 -
b1000000101001001000010110110011 8
b1000000101001001000010110110011 {"
b100 $
b100 +
b100 2
b100 A
b1100 >
b1100 v"
b1100 !#
b111110 =
b111110 P
b111110 S
b111110 W
b111110 [
b111110 _
b111110 c
b111110 g
b111110 k
b111110 o
b111110 s
b111110 w
b111110 {
b111110 !"
b111110 %"
b111110 )"
b111110 -"
b111110 1"
b111110 5"
b111110 9"
b111110 ="
b111110 A"
b111110 E"
b111110 I"
b111110 M"
b111110 Q"
b111110 U"
b111110 Y"
b111110 ]"
b111110 a"
b111110 e"
b111110 i"
b111110 m"
b111110 $#
b10000 <
b10000 '#
b10000 (#
b0 6
b0 G
b0 u"
b0 /#
04
0/
0.
b1 1#
b1000 0#
b0 +#
b10000010110 H
b10000010110 q"
b10000010110 &#
b10000 I
b10000 o"
b10000 %#
b1100 ?
b1100 p"
b1100 s"
b1100 *#
b1100 ,#
b1000000000000000000000000000000000000000000000000000000000000000 +"
b1100 C
b1100 L
b1100 }"
b1000000000000000000000000000000000000000000000000000000000000000 ."
1!
#120
0!
#125
b10 1#
b111110 y
b111110 |
b1 +#
b1 0#
1!
#130
0!
#135
b11 1#
b10 0#
b10 +#
1!
#140
0!
#145
1.
b1000 1#
b11 +#
b11 0#
1!
#150
0!
#155
b111110 =
b111110 P
b111110 S
b111110 W
b111110 [
b111110 _
b111110 c
b111110 g
b111110 k
b111110 o
b111110 s
b111110 w
b111110 {
b111110 !"
b111110 %"
b111110 )"
b111110 -"
b111110 1"
b111110 5"
b111110 9"
b111110 ="
b111110 A"
b111110 E"
b111110 I"
b111110 M"
b111110 Q"
b111110 U"
b111110 Y"
b111110 ]"
b111110 a"
b111110 e"
b111110 i"
b111110 m"
b111110 $#
b0 >
b0 v"
b0 !#
bx &
bx (
bx ,
bx 7
bx ##
b111110 '
b111110 )
b111110 3
b111110 E
b111110 J
b111110 z"
b111110 "#
b0 C
b0 L
b0 }"
b0 :
b0 N
b111110 D
b111110 K
b111110 t"
b1011 ;
b1011 M
0z
1`"
b11100 9
b11100 O
b1100011 1
b1100011 @
b1100011 .#
b11100 B
b11100 r"
b11100 |"
b11100 ~"
b1011000111001100011 #
b1011000111001100011 *
b1011000111001100011 -
b1011000111001100011 8
b1011000111001100011 {"
b101 $
b101 +
b101 2
b101 A
b10100 <
b10100 '#
b10100 (#
0.
b1 1#
b1000 0#
b0 +#
b101100 H
b101100 q"
b101100 &#
b10100 I
b10100 o"
b10100 %#
b10000 ?
b10000 p"
b10000 s"
b10000 *#
b10000 ,#
1!
#160
0!
#165
b10 1#
b111110 _"
b111110 b"
b1 +#
b1 0#
1!
#170
0!
#175
b111 1#
b10 0#
b10 +#
1!
#180
0!
#185
bx >
bx v"
bx !#
bx C
bx L
bx }"
bx :
bx N
xR
xV
xZ
x^
xf
xj
xn
xr
xv
xz
x~
x$"
x("
x,"
x0"
x4"
x8"
x<"
x@"
xD"
xH"
xL"
xP"
xT"
xX"
x\"
xd"
xh"
xl"
bx 1
bx @
bx .#
bx =
bx P
bx S
bx W
bx [
bx _
bx c
bx g
bx k
bx o
bx s
bx w
bx {
bx !"
bx %"
bx )"
bx -"
bx 1"
bx 5"
bx 9"
bx ="
bx A"
bx E"
bx I"
bx M"
bx Q"
bx U"
bx Y"
bx ]"
bx a"
bx e"
bx i"
bx m"
bx $#
bzxx0 5
bzxx0 F
bzxx0 w"
bzxx0 -#
b0 x"
bx '
bx )
bx 3
bx E
b0 y"
bx J
bx z"
bx "#
bx D
bx K
bx t"
bx ;
bx M
xb
x`"
bx 9
bx O
bx H
bx q"
bx &#
b0xxxxxxxxxxxx B
b0xxxxxxxxxxxx r"
b0xxxxxxxxxxxx |"
b0xxxxxxxxxxxx ~"
bx #
bx *
bx -
bx 8
bx {"
bx $
bx +
bx 2
bx A
bx <
bx '#
bx (#
b11 6
b11 G
b11 u"
b11 /#
10
b1000 1#
b11 +#
b111 0#
1!
#190
0!
#195
b0 6
b0 G
b0 u"
b0 /#
00
b1 1#
b1000 0#
b0 +#
bx I
bx o"
bx %#
bx ?
bx p"
bx s"
bx *#
bx ,#
1!
#200
0!
#205
b10 1#
b1 +#
b1 0#
1!
#210
0!
#215
b11 1#
b10 0#
b10 +#
1!
#220
0!
#225
1.
b1000 1#
b11 +#
b11 0#
1!
#230
0!
#235
0.
b1 1#
b1000 0#
b0 +#
1!
#240
0!
#245
b10 1#
b1 +#
b1 0#
1!
#250
0!
#255
b11 1#
b10 0#
b10 +#
1!
#260
0!
#265
1.
b1000 1#
b11 +#
b11 0#
1!
#270
0!
#275
0.
b1 1#
b1000 0#
b0 +#
1!
#280
0!
#285
b10 1#
b1 +#
b1 0#
1!
#290
0!
#295
b11 1#
b10 0#
b10 +#
1!
#300
0!
#305
1.
b1000 1#
b11 +#
b11 0#
1!
#310
0!
#315
0.
b1 1#
b1000 0#
b0 +#
1!
#320
0!
#325
b10 1#
b1 +#
b1 0#
1!
#330
0!
#335
b11 1#
b10 0#
b10 +#
1!
#340
0!
#345
1.
b1000 1#
b11 +#
b11 0#
1!
#350
0!
#355
0.
b1 1#
b1000 0#
b0 +#
1!
#360
0!
#365
b10 1#
b1 +#
b1 0#
1!
#370
0!
#375
b11 1#
b10 0#
b10 +#
1!
#380
0!
#385
1.
b1000 1#
b11 +#
b11 0#
1!
#390
0!
#395
0.
b1 1#
b1000 0#
b0 +#
1!
#400
0!
#405
b10 1#
b1 +#
b1 0#
1!
#410
0!
#415
b11 1#
b10 0#
b10 +#
1!
#420
0!
#425
1.
b1000 1#
b11 +#
b11 0#
1!
#430
0!
#435
0.
b1 1#
b1000 0#
b0 +#
1!
#440
0!
#445
b10 1#
b1 +#
b1 0#
1!
#450
0!
#455
b11 1#
b10 0#
b10 +#
1!
#460
0!
#465
1.
b1000 1#
b11 +#
b11 0#
1!
#470
0!
#475
0.
b1 1#
b1000 0#
b0 +#
1!
#480
0!
#485
b10 1#
b1 +#
b1 0#
1!
#490
0!
#495
b11 1#
b10 0#
b10 +#
1!
#500
0!
#505
1.
b1000 1#
b11 +#
b11 0#
1!
#510
0!
#515
0.
b1 1#
b1000 0#
b0 +#
1!
#520
0!
#525
b10 1#
b1 +#
b1 0#
1!
#530
0!
#535
b11 1#
b10 0#
b10 +#
1!
#540
0!
#545
1.
b1000 1#
b11 +#
b11 0#
1!
#550
0!
#555
0.
b1 1#
b1000 0#
b0 +#
1!
#560
0!
#565
b10 1#
b1 +#
b1 0#
1!
#570
0!
#575
b11 1#
b10 0#
b10 +#
1!
#580
0!
#585
1.
b1000 1#
b11 +#
b11 0#
1!
#590
0!
#595
0.
b1 1#
b1000 0#
b0 +#
1!
#600
0!
#605
b10 1#
b1 +#
b1 0#
1!
#610
0!
